{
  "project_info": {
    "project_number": "827556452637",
    "firebase_url": "https://smarthome-18eea.firebaseio.com",
    "project_id": "smarthome-18eea",
    "storage_bucket": "smarthome-18eea.appspot.com"
  },
  "client": [
    {
      "client_info": {
        "mobilesdk_app_id": "1:827556452637:android:6b17e48d98932dcd",
        "android_client_info": {
          "package_name": "com.example.francesco.smarthome"
        }
      },
      "oauth_client": [
        {
          "client_id": "827556452637-8ro8n742uakhav05j7eqbjqcckmb582h.apps.googleusercontent.com",
          "client_type": 1,
          "android_info": {
            "package_name": "com.example.francesco.smarthome",
            "certificate_hash": "3DA0A7186BF43159B487DA1AB5BCD61EA428A597"
          }
        },
        {
          "client_id": "827556452637-6lgdrrul28fal97ret10mp9s33606mds.apps.googleusercontent.com",
          "client_type": 3
        },
        {
          "client_id": "827556452637-4s96vsrefonnfbinhod1u59j981jucf7.apps.googleusercontent.com",
          "client_type": 3
        }
      ],
      "api_key": [
        {
          "current_key": "AIzaSyASqmCMj5eqcAD5w23TFNVSRaQgLq3QMVA"
        }
      ],
      "services": {
        "analytics_service": {
          "status": 1
        },
        "appinvite_service": {
          "status": 1,
          "other_platform_oauth_client": []
        },
        "ads_service": {
          "status": 2
        }
      }
    }
  ],
  "configuration_version": "1"
}